# Blender v2.82 (sub 7) OBJ File: 'labirintus.blend'
# www.blender.org
mtllib labyrinth_walls.mtl
o Plane.007_Plane.004
v 33.157391 -16.248442 20.176270
v 33.157391 -16.248442 0.176270
v 33.157391 3.751558 20.176270
v 33.157391 3.751558 0.176270
v 33.966221 3.751558 20.176270
v 33.966221 -16.248442 20.176270
v 33.966221 -16.248442 0.176270
v 33.966221 3.751558 0.176270
v 14.013571 33.792416 19.984116
v 14.013571 33.792416 -0.015884
v 14.013571 43.792416 19.984116
v 14.013571 43.792416 -0.015884
v 14.822401 43.792416 19.984116
v 14.822401 33.792416 19.984116
v 14.822401 33.792416 -0.015884
v 14.822401 43.792416 -0.015884
v -5.199314 4.996085 19.992069
v -5.199314 4.996085 -0.007932
v -25.199314 4.996086 19.992069
v -25.199314 4.996086 -0.007932
v -25.199314 5.804915 19.992069
v -5.199314 5.804915 19.992069
v -5.199314 5.804915 -0.007932
v -25.199314 5.804915 -0.007932
v 33.983574 43.107590 20.000000
v 33.983574 43.107590 0.000000
v 13.983572 43.107590 20.000000
v 13.983572 43.107590 0.000000
v 13.983572 43.916420 20.000000
v 33.983574 43.916420 20.000000
v 33.983574 43.916420 0.000000
v 13.983572 43.916420 0.000000
v -16.411621 -46.021935 20.025566
v -16.411621 -46.021935 0.025567
v -16.411621 -26.021935 20.025566
v -16.411621 -26.021935 0.025566
v -15.602791 -26.021935 20.025566
v -15.602791 -46.021935 20.025566
v -15.602791 -46.021935 0.025567
v -15.602791 -26.021935 0.025566
v 4.017128 -16.477045 19.914085
v 4.017128 -16.477045 -0.085915
v -15.982872 -16.477043 19.914085
v -15.982872 -16.477043 -0.085915
v -15.982872 -15.668215 19.914085
v 4.017128 -15.668215 19.914085
v 4.017128 -15.668215 -0.085915
v -15.982872 -15.668215 -0.085915
v 3.162769 -16.360674 19.868532
v 3.162769 -16.360674 -0.131468
v 3.162769 3.639326 19.868532
v 3.162769 3.639326 -0.131468
v 3.971600 3.639326 19.868532
v 3.971600 -16.360674 19.868532
v 3.971600 -16.360674 -0.131468
v 3.971600 3.639326 -0.131468
v 23.432144 13.852568 19.979740
v 23.432144 13.852568 -0.020260
v 23.432146 33.852566 19.979740
v 23.432146 33.852566 -0.020261
v 24.240974 33.852566 19.979740
v 24.240974 13.852568 19.979740
v 24.240974 13.852568 -0.020260
v 24.240974 33.852566 -0.020261
v 13.936546 -26.644938 19.984116
v 13.936546 -26.644938 -0.015884
v -6.063454 -26.644936 19.984116
v -6.063454 -26.644936 -0.015884
v -6.063454 -25.836105 19.984116
v 13.936546 -25.836107 19.984116
v 13.936546 -25.836107 -0.015884
v -6.063454 -25.836105 -0.015884
v 33.153160 3.538455 19.979740
v 33.153160 3.538455 -0.020259
v 33.153160 23.538454 19.979740
v 33.153160 23.538454 -0.020260
v 33.961990 23.538454 19.979740
v 33.961990 3.538455 19.979740
v 33.961990 3.538455 -0.020259
v 33.961990 23.538454 -0.020260
v 14.021009 13.852835 19.979740
v 14.021009 13.852835 -0.020260
v 14.021011 33.852833 19.979740
v 14.021011 33.852833 -0.020261
v 14.829840 33.852833 19.979740
v 14.829838 13.852835 19.979740
v 14.829838 13.852835 -0.020260
v 14.829840 33.852833 -0.020261
v 14.717016 43.107590 20.000000
v 14.717016 43.107590 0.000000
v -5.282982 43.107590 20.000000
v -5.282982 43.107590 0.000000
v -5.282982 43.916420 20.000000
v 14.717016 43.916420 20.000000
v 14.717016 43.916420 0.000000
v -5.282982 43.916420 0.000000
v 33.969437 -16.303873 20.000000
v 33.969437 -16.303873 -0.000002
v 13.969437 -16.303873 20.000000
v 13.969437 -16.303873 -0.000002
v 13.969437 -15.495043 20.000000
v 33.969437 -15.495043 20.000000
v 33.969437 -15.495043 -0.000002
v 13.969437 -15.495043 -0.000002
v -5.061295 43.107590 20.000000
v -5.061295 43.107590 0.000000
v -25.061295 43.107594 20.000000
v -25.061295 43.107594 0.000000
v -25.061295 43.916424 20.000000
v -5.061295 43.916420 20.000000
v -5.061295 43.916420 0.000000
v -25.061295 43.916424 0.000000
v 33.153156 23.397844 19.979740
v 33.153156 23.397844 -0.020259
v 33.153160 43.397842 19.979740
v 33.153160 43.397842 -0.020260
v 33.961987 43.397842 19.979740
v 33.961987 23.397844 19.979740
v 33.961987 23.397844 -0.020259
v 33.961987 43.397842 -0.020260
v 24.109585 13.847202 19.984116
v 24.109585 13.847202 -0.015885
v 14.109583 13.847202 19.984116
v 14.109583 13.847202 -0.015885
v 14.109583 14.656033 19.984116
v 24.109585 14.656033 19.984116
v 24.109585 14.656033 -0.015885
v 14.109583 14.656033 -0.015885
v 33.957531 -26.646059 19.992069
v 33.957531 -26.646059 -0.007931
v 13.957533 -26.646059 19.992069
v 13.957533 -26.646059 -0.007931
v 13.957533 -25.837231 19.992069
v 33.957531 -25.837229 19.992069
v 33.957531 -25.837229 -0.007931
v 13.957533 -25.837231 -0.007931
v 13.985243 -16.266537 20.169796
v 13.985243 -16.266537 0.169795
v 13.985243 3.733464 20.169796
v 13.985243 3.733464 0.169795
v 14.794071 3.733464 20.169796
v 14.794071 -16.266537 20.169796
v 14.794071 -16.266537 0.169795
v 14.794071 3.733464 0.169795
v -24.975842 33.922497 19.984116
v -24.975842 33.922497 -0.015884
v -34.975842 33.922497 19.984116
v -34.975842 33.922497 -0.015884
v -34.975842 34.731327 19.984116
v -24.975842 34.731327 19.984116
v -24.975842 34.731327 -0.015884
v -34.975842 34.731327 -0.015884
v 23.209152 -6.314149 19.984116
v 23.209152 -6.314150 -0.015884
v 23.209152 3.685850 19.984116
v 23.209152 3.685850 -0.015884
v 24.017981 3.685850 19.984116
v 24.017981 -6.314149 19.984116
v 24.017981 -6.314150 -0.015884
v 24.017981 3.685850 -0.015884
v 3.519123 14.222244 20.000000
v 3.519123 14.222244 0.000000
v 3.519125 34.222244 20.000000
v 3.519125 34.222244 -0.000001
v 4.327955 34.222244 20.000000
v 4.327953 14.222244 20.000000
v 4.327953 14.222244 0.000000
v 4.327955 34.222244 -0.000001
v -16.202778 23.880325 20.169796
v -16.202778 23.880325 0.169795
v -16.202774 43.880325 20.169794
v -16.202774 43.880325 0.169794
v -15.393944 43.880325 20.169794
v -15.393948 23.880325 20.169796
v -15.393948 23.880325 0.169795
v -15.393944 43.880325 0.169794
v 4.321383 33.456867 19.984116
v 4.321383 33.456867 -0.015884
v -5.678619 33.456867 19.984116
v -5.678619 33.456867 -0.015884
v -5.678619 34.265697 19.984116
v 4.321383 34.265697 19.984116
v 4.321383 34.265697 -0.015884
v -5.678619 34.265697 -0.015884
v -6.171665 23.954533 19.984116
v -6.171665 23.954533 -0.015883
v -16.171665 23.954533 19.984116
v -16.171665 23.954533 -0.015883
v -16.171665 24.763363 19.984116
v -6.171665 24.763363 19.984116
v -6.171665 24.763363 -0.015883
v -16.171665 24.763363 -0.015883
v 4.291458 14.186527 19.984116
v 4.291458 14.186527 -0.015883
v -5.708542 14.186527 19.984116
v -5.708542 14.186527 -0.015883
v -5.708542 14.995358 19.984116
v 4.291458 14.995358 19.984116
v 4.291458 14.995358 -0.015883
v -5.708542 14.995358 -0.015883
v -5.987816 4.992577 19.984116
v -5.987816 4.992577 -0.015885
v -5.987816 14.992577 19.984116
v -5.987816 14.992577 -0.015885
v -5.178986 14.992577 19.984116
v -5.178986 4.992577 19.984116
v -5.178986 4.992577 -0.015885
v -5.178986 14.992577 -0.015885
v 24.015659 2.892459 19.984116
v 24.015659 2.892459 -0.015884
v 14.015657 2.892460 19.984116
v 14.015657 2.892460 -0.015884
v 14.015657 3.701290 19.984116
v 24.015659 3.701289 19.984116
v 24.015659 3.701289 -0.015884
v 14.015657 3.701290 -0.015884
v -16.225677 13.954384 19.984116
v -16.225677 13.954384 -0.015883
v -16.225677 23.954384 19.984116
v -16.225677 23.954384 -0.015883
v -15.416847 23.954384 19.984116
v -15.416847 13.954384 19.984116
v -15.416847 13.954384 -0.015883
v -15.416847 23.954384 -0.015883
v 33.824696 -45.990768 19.956488
v 33.824696 -45.990768 -0.043512
v 13.824696 -45.990768 19.956488
v 13.824696 -45.990768 -0.043512
v 13.824696 -45.181942 19.956488
v 33.824696 -45.181938 19.956488
v 33.824696 -45.181938 -0.043512
v 13.824696 -45.181942 -0.043512
v -25.641232 3.180485 20.169796
v -25.641232 3.180485 0.169795
v -25.641232 23.180485 20.169796
v -25.641232 23.180485 0.169794
v -24.832401 23.180485 20.169796
v -24.832401 3.180485 20.169796
v -24.832401 3.180485 0.169795
v -24.832401 23.180485 0.169794
v -25.797596 33.955154 19.984116
v -25.797596 33.955154 -0.015884
v -25.797592 43.955154 19.984116
v -25.797592 43.955154 -0.015884
v -24.988762 43.955154 19.984116
v -24.988766 33.955154 19.984116
v -24.988766 33.955154 -0.015884
v -24.988762 43.955154 -0.015884
v -24.840588 22.469706 19.984116
v -24.840588 22.469706 -0.015883
v -34.840588 22.469707 19.984116
v -34.840588 22.469707 -0.015883
v -34.840588 23.278538 19.984116
v -24.840588 23.278536 19.984116
v -24.840588 23.278536 -0.015883
v -34.840588 23.278538 -0.015883
v -15.640392 -26.836859 19.984116
v -15.640392 -26.836859 -0.015884
v -25.640392 -26.836859 19.984116
v -25.640392 -26.836859 -0.015884
v -25.640392 -26.028030 19.984116
v -15.640392 -26.028028 19.984116
v -15.640392 -26.028028 -0.015884
v -25.640392 -26.028030 -0.015884
v -25.639683 -16.780369 20.169796
v -25.639683 -16.780369 0.169795
v -25.639683 3.219632 20.169796
v -25.639683 3.219632 0.169795
v -24.830853 3.219632 20.169796
v -24.830853 -16.780369 20.169796
v -24.830853 -16.780369 0.169795
v -24.830853 3.219632 0.169795
v -25.633808 -26.775200 19.984116
v -25.633808 -26.775200 -0.015884
v -25.633808 -16.775200 19.984116
v -25.633808 -16.775200 -0.015885
v -24.824978 -16.775200 19.984116
v -24.824978 -26.775200 19.984116
v -24.824978 -26.775200 -0.015884
v -24.824978 -16.775200 -0.015885
v -5.730583 -46.000912 19.984116
v -5.730583 -46.000912 -0.015884
v -15.730583 -46.000908 19.984116
v -15.730583 -46.000908 -0.015884
v -15.730583 -45.192078 19.984116
v -5.730583 -45.192081 19.984116
v -5.730583 -45.192081 -0.015884
v -15.730583 -45.192078 -0.015884
v 33.139000 -46.021255 19.958973
v 33.139000 -46.021255 -0.041027
v 33.139000 -26.021255 19.958973
v 33.139000 -26.021255 -0.041028
v 33.947830 -26.021255 19.958973
v 33.947830 -46.021255 19.958973
v 33.947830 -46.021255 -0.041027
v 33.947830 -26.021255 -0.041028
v -6.005428 -4.922531 20.000000
v -6.005428 -4.922532 0.000000
v -6.005428 5.077470 20.000000
v -6.005428 5.077470 -0.000001
v -5.196598 5.077470 20.000000
v -5.196598 -4.922531 20.000000
v -5.196598 -4.922532 0.000000
v -5.196598 5.077470 -0.000001
v -5.179577 -5.029718 19.984116
v -5.179577 -5.029719 -0.015884
v -15.179577 -5.029718 19.984116
v -15.179577 -5.029719 -0.015884
v -15.179577 -4.220888 19.984116
v -5.179577 -4.220888 19.984116
v -5.179577 -4.220889 -0.015884
v -15.179577 -4.220889 -0.015884
v 14.213192 -45.996059 19.982069
v 14.213192 -45.996059 -0.017931
v -5.786808 -45.996059 19.982069
v -5.786808 -45.996059 -0.017931
v -5.786808 -45.187229 19.982069
v 14.213192 -45.187229 19.982069
v 14.213192 -45.187229 -0.017931
v -5.786808 -45.187229 -0.017931
v 13.948681 -36.430862 19.992069
v 13.948681 -36.430862 -0.007932
v -6.051319 -36.430862 19.992069
v -6.051319 -36.430862 -0.007932
v -6.051319 -35.622032 19.992069
v 13.948681 -35.622032 19.992069
v 13.948681 -35.622032 -0.007932
v -6.051319 -35.622032 -0.007932
v 23.599216 -36.429794 19.984116
v 23.599216 -36.429794 -0.015884
v 13.599215 -36.429794 19.984116
v 13.599215 -36.429794 -0.015884
v 13.599215 -35.620964 19.984116
v 23.599216 -35.620964 19.984116
v 23.599216 -35.620964 -0.015884
v 13.599215 -35.620964 -0.015884
v -6.047211 -35.923420 19.984116
v -6.047211 -35.923420 -0.015884
v -6.047211 -25.923420 19.984116
v -6.047211 -25.923420 -0.015884
v -5.238380 -25.923420 19.984116
v -5.238380 -35.923420 19.984116
v -5.238380 -35.923420 -0.015884
v -5.238380 -25.923420 -0.015884
vt 0.000000 1.000000
vt 1.000000 0.000000
vt 0.000000 0.000000
vt 1.000000 0.000000
vt 0.000000 1.000000
vt 0.000000 0.000000
vt 1.000000 1.000000
vt 1.000000 1.000000
vt 0.000000 1.000000
vt 1.000000 0.000000
vt 0.000000 0.000000
vt 1.000000 0.000000
vt 0.000000 1.000000
vt 0.000000 0.000000
vt 1.000000 1.000000
vt 1.000000 1.000000
vt 0.000000 1.000000
vt 1.000000 0.000000
vt 0.000000 0.000000
vt 1.000000 0.000000
vt 0.000000 1.000000
vt 0.000000 0.000000
vt 1.000000 1.000000
vt 1.000000 1.000000
vt 0.000000 1.000000
vt 1.000000 0.000000
vt 0.000000 0.000000
vt 1.000000 0.000000
vt 0.000000 1.000000
vt 0.000000 0.000000
vt 1.000000 1.000000
vt 1.000000 1.000000
vt 0.000000 1.000000
vt 1.000000 0.000000
vt 0.000000 0.000000
vt 1.000000 0.000000
vt 0.000000 1.000000
vt 0.000000 0.000000
vt 1.000000 1.000000
vt 1.000000 1.000000
vt 0.000000 1.000000
vt 1.000000 0.000000
vt 0.000000 0.000000
vt 1.000000 0.000000
vt 0.000000 1.000000
vt 0.000000 0.000000
vt 1.000000 1.000000
vt 1.000000 1.000000
vt 0.000000 1.000000
vt 1.000000 0.000000
vt 0.000000 0.000000
vt 1.000000 0.000000
vt 0.000000 1.000000
vt 0.000000 0.000000
vt 1.000000 1.000000
vt 1.000000 1.000000
vt 0.000000 1.000000
vt 1.000000 0.000000
vt 0.000000 0.000000
vt 1.000000 0.000000
vt 0.000000 1.000000
vt 0.000000 0.000000
vt 1.000000 1.000000
vt 1.000000 1.000000
vt 0.000000 1.000000
vt 1.000000 0.000000
vt 0.000000 0.000000
vt 1.000000 0.000000
vt 0.000000 1.000000
vt 0.000000 0.000000
vt 1.000000 1.000000
vt 1.000000 1.000000
vt 0.000000 1.000000
vt 1.000000 0.000000
vt 0.000000 0.000000
vt 1.000000 0.000000
vt 0.000000 1.000000
vt 0.000000 0.000000
vt 1.000000 1.000000
vt 1.000000 1.000000
vt 0.000000 1.000000
vt 1.000000 0.000000
vt 0.000000 0.000000
vt 1.000000 0.000000
vt 0.000000 1.000000
vt 0.000000 0.000000
vt 1.000000 1.000000
vt 1.000000 1.000000
vt 0.000000 1.000000
vt 1.000000 0.000000
vt 0.000000 0.000000
vt 1.000000 0.000000
vt 0.000000 1.000000
vt 0.000000 0.000000
vt 1.000000 1.000000
vt 1.000000 1.000000
vt 0.000000 1.000000
vt 1.000000 0.000000
vt 0.000000 0.000000
vt 1.000000 0.000000
vt 0.000000 1.000000
vt 0.000000 0.000000
vt 1.000000 1.000000
vt 1.000000 1.000000
vt 0.000000 1.000000
vt 1.000000 0.000000
vt 0.000000 0.000000
vt 1.000000 0.000000
vt 0.000000 1.000000
vt 0.000000 0.000000
vt 1.000000 1.000000
vt 1.000000 1.000000
vt 0.000000 1.000000
vt 1.000000 0.000000
vt 0.000000 0.000000
vt 1.000000 0.000000
vt 0.000000 1.000000
vt 0.000000 0.000000
vt 1.000000 1.000000
vt 1.000000 1.000000
vt 0.000000 1.000000
vt 1.000000 0.000000
vt 0.000000 0.000000
vt 1.000000 0.000000
vt 0.000000 1.000000
vt 0.000000 0.000000
vt 1.000000 1.000000
vt 1.000000 1.000000
vt 0.000000 1.000000
vt 1.000000 0.000000
vt 0.000000 0.000000
vt 1.000000 0.000000
vt 0.000000 1.000000
vt 0.000000 0.000000
vt 1.000000 1.000000
vt 1.000000 1.000000
vt 0.000000 1.000000
vt 1.000000 0.000000
vt 0.000000 0.000000
vt 1.000000 0.000000
vt 0.000000 1.000000
vt 0.000000 0.000000
vt 1.000000 1.000000
vt 1.000000 1.000000
vt 0.000000 1.000000
vt 1.000000 0.000000
vt 0.000000 0.000000
vt 1.000000 0.000000
vt 0.000000 1.000000
vt 0.000000 0.000000
vt 1.000000 1.000000
vt 1.000000 1.000000
vt 0.000000 1.000000
vt 1.000000 0.000000
vt 0.000000 0.000000
vt 1.000000 0.000000
vt 0.000000 1.000000
vt 0.000000 0.000000
vt 1.000000 1.000000
vt 1.000000 1.000000
vt 0.000000 1.000000
vt 1.000000 0.000000
vt 0.000000 0.000000
vt 1.000000 0.000000
vt 0.000000 1.000000
vt 0.000000 0.000000
vt 1.000000 1.000000
vt 1.000000 1.000000
vt 0.000000 1.000000
vt 1.000000 0.000000
vt 0.000000 0.000000
vt 1.000000 0.000000
vt 0.000000 1.000000
vt 0.000000 0.000000
vt 1.000000 1.000000
vt 1.000000 1.000000
vt 0.000000 1.000000
vt 1.000000 0.000000
vt 0.000000 0.000000
vt 1.000000 0.000000
vt 0.000000 1.000000
vt 0.000000 0.000000
vt 1.000000 1.000000
vt 1.000000 1.000000
vt 0.000000 1.000000
vt 1.000000 0.000000
vt 0.000000 0.000000
vt 1.000000 0.000000
vt 0.000000 1.000000
vt 0.000000 0.000000
vt 1.000000 1.000000
vt 1.000000 1.000000
vt 0.000000 1.000000
vt 1.000000 0.000000
vt 0.000000 0.000000
vt 1.000000 0.000000
vt 0.000000 1.000000
vt 0.000000 0.000000
vt 1.000000 1.000000
vt 1.000000 1.000000
vt 0.000000 1.000000
vt 1.000000 0.000000
vt 0.000000 0.000000
vt 1.000000 0.000000
vt 0.000000 1.000000
vt 0.000000 0.000000
vt 1.000000 1.000000
vt 1.000000 1.000000
vt 0.000000 1.000000
vt 1.000000 0.000000
vt 0.000000 0.000000
vt 1.000000 0.000000
vt 0.000000 1.000000
vt 0.000000 0.000000
vt 1.000000 1.000000
vt 1.000000 1.000000
vt 0.000000 1.000000
vt 1.000000 0.000000
vt 0.000000 0.000000
vt 1.000000 0.000000
vt 0.000000 1.000000
vt 0.000000 0.000000
vt 1.000000 1.000000
vt 1.000000 1.000000
vt 0.000000 1.000000
vt 1.000000 0.000000
vt 0.000000 0.000000
vt 1.000000 0.000000
vt 0.000000 1.000000
vt 0.000000 0.000000
vt 1.000000 1.000000
vt 1.000000 1.000000
vt 0.000000 1.000000
vt 1.000000 0.000000
vt 0.000000 0.000000
vt 1.000000 0.000000
vt 0.000000 1.000000
vt 0.000000 0.000000
vt 1.000000 1.000000
vt 1.000000 1.000000
vt 0.000000 1.000000
vt 1.000000 0.000000
vt 0.000000 0.000000
vt 1.000000 0.000000
vt 0.000000 1.000000
vt 0.000000 0.000000
vt 1.000000 1.000000
vt 1.000000 1.000000
vt 0.000000 1.000000
vt 1.000000 0.000000
vt 0.000000 0.000000
vt 1.000000 0.000000
vt 0.000000 1.000000
vt 0.000000 0.000000
vt 1.000000 1.000000
vt 1.000000 1.000000
vt 0.000000 1.000000
vt 1.000000 0.000000
vt 0.000000 0.000000
vt 1.000000 0.000000
vt 0.000000 1.000000
vt 0.000000 0.000000
vt 1.000000 1.000000
vt 1.000000 1.000000
vt 0.000000 1.000000
vt 1.000000 0.000000
vt 0.000000 0.000000
vt 1.000000 0.000000
vt 0.000000 1.000000
vt 0.000000 0.000000
vt 1.000000 1.000000
vt 1.000000 1.000000
vt 0.000000 1.000000
vt 1.000000 0.000000
vt 0.000000 0.000000
vt 1.000000 0.000000
vt 0.000000 1.000000
vt 0.000000 0.000000
vt 1.000000 1.000000
vt 1.000000 1.000000
vt 0.000000 1.000000
vt 1.000000 0.000000
vt 0.000000 0.000000
vt 1.000000 0.000000
vt 0.000000 1.000000
vt 0.000000 0.000000
vt 1.000000 1.000000
vt 1.000000 1.000000
vt 0.000000 1.000000
vt 1.000000 0.000000
vt 0.000000 0.000000
vt 1.000000 0.000000
vt 0.000000 1.000000
vt 0.000000 0.000000
vt 1.000000 1.000000
vt 1.000000 1.000000
vt 0.000000 1.000000
vt 1.000000 0.000000
vt 0.000000 0.000000
vt 1.000000 0.000000
vt 0.000000 1.000000
vt 0.000000 0.000000
vt 1.000000 1.000000
vt 1.000000 1.000000
vt 0.000000 1.000000
vt 1.000000 0.000000
vt 0.000000 0.000000
vt 1.000000 0.000000
vt 0.000000 1.000000
vt 0.000000 0.000000
vt 1.000000 1.000000
vt 1.000000 1.000000
vt 0.000000 1.000000
vt 1.000000 0.000000
vt 0.000000 0.000000
vt 1.000000 0.000000
vt 0.000000 1.000000
vt 0.000000 0.000000
vt 1.000000 1.000000
vt 1.000000 1.000000
vt 0.000000 1.000000
vt 1.000000 0.000000
vt 0.000000 0.000000
vt 1.000000 0.000000
vt 0.000000 1.000000
vt 0.000000 0.000000
vt 1.000000 1.000000
vt 1.000000 1.000000
vt 0.000000 1.000000
vt 1.000000 0.000000
vt 0.000000 0.000000
vt 1.000000 0.000000
vt 0.000000 1.000000
vt 0.000000 0.000000
vt 1.000000 1.000000
vt 1.000000 1.000000
vt 0.000000 1.000000
vt 1.000000 0.000000
vt 0.000000 0.000000
vt 1.000000 0.000000
vt 0.000000 1.000000
vt 0.000000 0.000000
vt 1.000000 1.000000
vt 1.000000 1.000000
vn -1.0000 0.0000 0.0000
vn 1.0000 0.0000 0.0000
vn 0.0000 1.0000 0.0000
vn 0.0000 -1.0000 0.0000
vn 0.0000 0.0000 -1.0000
vn 0.0000 0.0000 1.0000
usemtl Material.004
s off
f 3/1/1 2/2/1 1/3/1
f 7/4/2 5/5/2 6/6/2
f 3/1/3 8/7/3 4/8/3
f 2/2/4 6/6/4 1/3/4
f 4/8/5 7/4/5 2/2/5
f 1/3/6 5/5/6 3/1/6
f 7/4/2 8/7/2 5/5/2
f 3/1/3 5/5/3 8/7/3
f 1/3/6 6/6/6 5/5/6
f 3/1/1 4/8/1 2/2/1
f 2/2/4 7/4/4 6/6/4
f 11/9/1 10/10/1 9/11/1
f 15/12/2 13/13/2 14/14/2
f 11/9/3 16/15/3 12/16/3
f 10/10/4 14/14/4 9/11/4
f 12/16/5 15/12/5 10/10/5
f 9/11/6 13/13/6 11/9/6
f 15/12/2 16/15/2 13/13/2
f 9/11/6 14/14/6 13/13/6
f 11/9/1 12/16/1 10/10/1
f 10/10/4 15/12/4 14/14/4
f 19/17/4 18/18/4 17/19/4
f 23/20/3 21/21/3 22/22/3
f 19/17/1 24/23/1 20/24/1
f 18/18/2 22/22/2 17/19/2
f 20/24/5 23/20/5 18/18/5
f 17/19/6 21/21/6 19/17/6
f 19/17/4 20/24/4 18/18/4
f 18/18/2 23/20/2 22/22/2
f 17/19/6 22/22/6 21/21/6
f 23/20/3 24/23/3 21/21/3
f 27/25/4 26/26/4 25/27/4
f 31/28/3 29/29/3 30/30/3
f 27/25/1 32/31/1 28/32/1
f 26/26/2 30/30/2 25/27/2
f 28/32/5 31/28/5 26/26/5
f 25/27/6 29/29/6 27/25/6
f 27/25/4 28/32/4 26/26/4
f 26/26/2 31/28/2 30/30/2
f 25/27/6 30/30/6 29/29/6
f 31/28/3 32/31/3 29/29/3
f 27/25/1 29/29/1 32/31/1
f 35/33/1 34/34/1 33/35/1
f 39/36/2 37/37/2 38/38/2
f 35/33/3 40/39/3 36/40/3
f 34/34/4 38/38/4 33/35/4
f 36/40/5 39/36/5 34/34/5
f 33/35/6 37/37/6 35/33/6
f 39/36/2 40/39/2 37/37/2
f 33/35/6 38/38/6 37/37/6
f 35/33/1 36/40/1 34/34/1
f 35/33/3 37/37/3 40/39/3
f 43/41/4 42/42/4 41/43/4
f 47/44/3 45/45/3 46/46/3
f 43/41/1 48/47/1 44/48/1
f 42/42/2 46/46/2 41/43/2
f 44/48/5 47/44/5 42/42/5
f 41/43/6 45/45/6 43/41/6
f 43/41/4 44/48/4 42/42/4
f 42/42/2 47/44/2 46/46/2
f 41/43/6 46/46/6 45/45/6
f 47/44/3 48/47/3 45/45/3
f 43/41/1 45/45/1 48/47/1
f 51/49/1 50/50/1 49/51/1
f 55/52/2 53/53/2 54/54/2
f 51/49/3 56/55/3 52/56/3
f 50/50/4 54/54/4 49/51/4
f 52/56/5 55/52/5 50/50/5
f 49/51/6 53/53/6 51/49/6
f 55/52/2 56/55/2 53/53/2
f 49/51/6 54/54/6 53/53/6
f 51/49/1 52/56/1 50/50/1
f 51/49/3 53/53/3 56/55/3
f 59/57/1 58/58/1 57/59/1
f 63/60/2 61/61/2 62/62/2
f 59/57/3 64/63/3 60/64/3
f 58/58/4 62/62/4 57/59/4
f 60/64/5 63/60/5 58/58/5
f 57/59/6 61/61/6 59/57/6
f 63/60/2 64/63/2 61/61/2
f 58/58/4 63/60/4 62/62/4
f 57/59/6 62/62/6 61/61/6
f 59/57/1 60/64/1 58/58/1
f 59/57/3 61/61/3 64/63/3
f 67/65/4 66/66/4 65/67/4
f 71/68/3 69/69/3 70/70/3
f 67/65/1 72/71/1 68/72/1
f 66/66/2 70/70/2 65/67/2
f 68/72/5 71/68/5 66/66/5
f 65/67/6 69/69/6 67/65/6
f 67/65/4 68/72/4 66/66/4
f 65/67/6 70/70/6 69/69/6
f 71/68/3 72/71/3 69/69/3
f 67/65/1 69/69/1 72/71/1
f 66/66/2 71/68/2 70/70/2
f 75/73/1 74/74/1 73/75/1
f 79/76/2 77/77/2 78/78/2
f 75/73/3 80/79/3 76/80/3
f 74/74/4 78/78/4 73/75/4
f 76/80/5 79/76/5 74/74/5
f 73/75/6 77/77/6 75/73/6
f 79/76/2 80/79/2 77/77/2
f 75/73/3 77/77/3 80/79/3
f 73/75/6 78/78/6 77/77/6
f 75/73/1 76/80/1 74/74/1
f 74/74/4 79/76/4 78/78/4
f 83/81/1 82/82/1 81/83/1
f 87/84/2 85/85/2 86/86/2
f 83/81/3 88/87/3 84/88/3
f 82/82/4 86/86/4 81/83/4
f 84/88/5 87/84/5 82/82/5
f 81/83/6 85/85/6 83/81/6
f 87/84/2 88/87/2 85/85/2
f 83/81/3 85/85/3 88/87/3
f 82/82/4 87/84/4 86/86/4
f 81/83/6 86/86/6 85/85/6
f 83/81/1 84/88/1 82/82/1
f 91/89/4 90/90/4 89/91/4
f 95/92/3 93/93/3 94/94/3
f 91/89/1 96/95/1 92/96/1
f 90/90/2 94/94/2 89/91/2
f 92/96/5 95/92/5 90/90/5
f 89/91/6 93/93/6 91/89/6
f 91/89/4 92/96/4 90/90/4
f 91/89/1 93/93/1 96/95/1
f 89/91/6 94/94/6 93/93/6
f 95/92/3 96/95/3 93/93/3
f 99/97/4 98/98/4 97/99/4
f 103/100/3 101/101/3 102/102/3
f 99/97/1 104/103/1 100/104/1
f 98/98/2 102/102/2 97/99/2
f 100/104/5 103/100/5 98/98/5
f 97/99/6 101/101/6 99/97/6
f 99/97/4 100/104/4 98/98/4
f 99/97/1 101/101/1 104/103/1
f 98/98/2 103/100/2 102/102/2
f 97/99/6 102/102/6 101/101/6
f 103/100/3 104/103/3 101/101/3
f 107/105/4 106/106/4 105/107/4
f 111/108/3 109/109/3 110/110/3
f 107/105/1 112/111/1 108/112/1
f 106/106/2 110/110/2 105/107/2
f 108/112/5 111/108/5 106/106/5
f 105/107/6 109/109/6 107/105/6
f 107/105/4 108/112/4 106/106/4
f 111/108/3 112/111/3 109/109/3
f 105/107/6 110/110/6 109/109/6
f 115/113/1 114/114/1 113/115/1
f 119/116/2 117/117/2 118/118/2
f 115/113/3 120/119/3 116/120/3
f 114/114/4 118/118/4 113/115/4
f 116/120/5 119/116/5 114/114/5
f 113/115/6 117/117/6 115/113/6
f 119/116/2 120/119/2 117/117/2
f 113/115/6 118/118/6 117/117/6
f 115/113/1 116/120/1 114/114/1
f 123/121/4 122/122/4 121/123/4
f 127/124/3 125/125/3 126/126/3
f 123/121/1 128/127/1 124/128/1
f 122/122/2 126/126/2 121/123/2
f 124/128/5 127/124/5 122/122/5
f 121/123/6 125/125/6 123/121/6
f 123/121/4 124/128/4 122/122/4
f 123/121/1 125/125/1 128/127/1
f 122/122/2 127/124/2 126/126/2
f 121/123/6 126/126/6 125/125/6
f 127/124/3 128/127/3 125/125/3
f 131/129/4 130/130/4 129/131/4
f 135/132/3 133/133/3 134/134/3
f 131/129/1 136/135/1 132/136/1
f 130/130/2 134/134/2 129/131/2
f 132/136/5 135/132/5 130/130/5
f 129/131/6 133/133/6 131/129/6
f 131/129/4 132/136/4 130/130/4
f 130/130/2 135/132/2 134/134/2
f 129/131/6 134/134/6 133/133/6
f 135/132/3 136/135/3 133/133/3
f 131/129/1 133/133/1 136/135/1
f 139/137/1 138/138/1 137/139/1
f 143/140/2 141/141/2 142/142/2
f 139/137/3 144/143/3 140/144/3
f 138/138/4 142/142/4 137/139/4
f 140/144/5 143/140/5 138/138/5
f 137/139/6 141/141/6 139/137/6
f 143/140/2 144/143/2 141/141/2
f 138/138/4 143/140/4 142/142/4
f 137/139/6 142/142/6 141/141/6
f 139/137/1 140/144/1 138/138/1
f 139/137/3 141/141/3 144/143/3
f 140/144/5 144/143/5 143/140/5
f 147/145/4 146/146/4 145/147/4
f 151/148/3 149/149/3 150/150/3
f 147/145/1 152/151/1 148/152/1
f 146/146/2 150/150/2 145/147/2
f 148/152/5 151/148/5 146/146/5
f 145/147/6 149/149/6 147/145/6
f 147/145/4 148/152/4 146/146/4
f 147/145/1 149/149/1 152/151/1
f 146/146/2 151/148/2 150/150/2
f 145/147/6 150/150/6 149/149/6
f 151/148/3 152/151/3 149/149/3
f 155/153/1 154/154/1 153/155/1
f 159/156/2 157/157/2 158/158/2
f 155/153/3 160/159/3 156/160/3
f 154/154/4 158/158/4 153/155/4
f 156/160/5 159/156/5 154/154/5
f 153/155/6 157/157/6 155/153/6
f 159/156/2 160/159/2 157/157/2
f 154/154/4 159/156/4 158/158/4
f 153/155/6 158/158/6 157/157/6
f 155/153/1 156/160/1 154/154/1
f 163/161/1 162/162/1 161/163/1
f 167/164/2 165/165/2 166/166/2
f 163/161/3 168/167/3 164/168/3
f 162/162/4 166/166/4 161/163/4
f 164/168/5 167/164/5 162/162/5
f 161/163/6 165/165/6 163/161/6
f 167/164/2 168/167/2 165/165/2
f 162/162/4 167/164/4 166/166/4
f 161/163/6 166/166/6 165/165/6
f 163/161/1 164/168/1 162/162/1
f 171/169/1 170/170/1 169/171/1
f 175/172/2 173/173/2 174/174/2
f 171/169/3 176/175/3 172/176/3
f 170/170/4 174/174/4 169/171/4
f 172/176/5 175/172/5 170/170/5
f 169/171/6 173/173/6 171/169/6
f 175/172/2 176/175/2 173/173/2
f 170/170/4 175/172/4 174/174/4
f 169/171/6 174/174/6 173/173/6
f 171/169/1 172/176/1 170/170/1
f 171/169/3 173/173/3 176/175/3
f 179/177/4 178/178/4 177/179/4
f 183/180/3 181/181/3 182/182/3
f 179/177/1 184/183/1 180/184/1
f 178/178/2 182/182/2 177/179/2
f 180/184/5 183/180/5 178/178/5
f 177/179/6 181/181/6 179/177/6
f 179/177/4 180/184/4 178/178/4
f 179/177/1 181/181/1 184/183/1
f 178/178/2 183/180/2 182/182/2
f 177/179/6 182/182/6 181/181/6
f 183/180/3 184/183/3 181/181/3
f 187/185/4 186/186/4 185/187/4
f 191/188/3 189/189/3 190/190/3
f 187/185/1 192/191/1 188/192/1
f 186/186/2 190/190/2 185/187/2
f 188/192/5 191/188/5 186/186/5
f 185/187/6 189/189/6 187/185/6
f 187/185/4 188/192/4 186/186/4
f 186/186/2 191/188/2 190/190/2
f 185/187/6 190/190/6 189/189/6
f 191/188/3 192/191/3 189/189/3
f 195/193/4 194/194/4 193/195/4
f 199/196/3 197/197/3 198/198/3
f 195/193/1 200/199/1 196/200/1
f 194/194/2 198/198/2 193/195/2
f 196/200/5 199/196/5 194/194/5
f 193/195/6 197/197/6 195/193/6
f 195/193/4 196/200/4 194/194/4
f 193/195/6 198/198/6 197/197/6
f 199/196/3 200/199/3 197/197/3
f 203/201/1 202/202/1 201/203/1
f 207/204/2 205/205/2 206/206/2
f 203/201/3 208/207/3 204/208/3
f 202/202/4 206/206/4 201/203/4
f 204/208/5 207/204/5 202/202/5
f 201/203/6 205/205/6 203/201/6
f 207/204/2 208/207/2 205/205/2
f 202/202/4 207/204/4 206/206/4
f 201/203/6 206/206/6 205/205/6
f 203/201/1 204/208/1 202/202/1
f 203/201/3 205/205/3 208/207/3
f 211/209/4 210/210/4 209/211/4
f 215/212/3 213/213/3 214/214/3
f 211/209/1 216/215/1 212/216/1
f 210/210/2 214/214/2 209/211/2
f 212/216/5 215/212/5 210/210/5
f 209/211/6 213/213/6 211/209/6
f 211/209/4 212/216/4 210/210/4
f 210/210/2 215/212/2 214/214/2
f 209/211/6 214/214/6 213/213/6
f 215/212/3 216/215/3 213/213/3
f 219/217/1 218/218/1 217/219/1
f 223/220/2 221/221/2 222/222/2
f 219/217/3 224/223/3 220/224/3
f 218/218/4 222/222/4 217/219/4
f 220/224/5 223/220/5 218/218/5
f 217/219/6 221/221/6 219/217/6
f 223/220/2 224/223/2 221/221/2
f 218/218/4 223/220/4 222/222/4
f 217/219/6 222/222/6 221/221/6
f 219/217/1 220/224/1 218/218/1
f 219/217/3 221/221/3 224/223/3
f 227/225/4 226/226/4 225/227/4
f 231/228/3 229/229/3 230/230/3
f 227/225/1 232/231/1 228/232/1
f 226/226/2 230/230/2 225/227/2
f 228/232/5 231/228/5 226/226/5
f 225/227/6 229/229/6 227/225/6
f 231/228/3 232/231/3 229/229/3
f 227/225/1 229/229/1 232/231/1
f 225/227/6 230/230/6 229/229/6
f 235/233/1 234/234/1 233/235/1
f 239/236/2 237/237/2 238/238/2
f 235/233/3 240/239/3 236/240/3
f 234/234/4 238/238/4 233/235/4
f 236/240/5 239/236/5 234/234/5
f 233/235/6 237/237/6 235/233/6
f 239/236/2 240/239/2 237/237/2
f 233/235/6 238/238/6 237/237/6
f 235/233/1 236/240/1 234/234/1
f 235/233/3 237/237/3 240/239/3
f 234/234/4 239/236/4 238/238/4
f 243/241/1 242/242/1 241/243/1
f 247/244/2 245/245/2 246/246/2
f 243/241/3 248/247/3 244/248/3
f 242/242/4 246/246/4 241/243/4
f 244/248/5 247/244/5 242/242/5
f 241/243/6 245/245/6 243/241/6
f 247/244/2 248/247/2 245/245/2
f 241/243/6 246/246/6 245/245/6
f 243/241/1 244/248/1 242/242/1
f 243/241/3 245/245/3 248/247/3
f 251/249/4 250/250/4 249/251/4
f 255/252/3 253/253/3 254/254/3
f 251/249/1 256/255/1 252/256/1
f 250/250/2 254/254/2 249/251/2
f 252/256/5 255/252/5 250/250/5
f 249/251/6 253/253/6 251/249/6
f 251/249/4 252/256/4 250/250/4
f 249/251/6 254/254/6 253/253/6
f 255/252/3 256/255/3 253/253/3
f 251/249/1 253/253/1 256/255/1
f 259/257/4 258/258/4 257/259/4
f 263/260/3 261/261/3 262/262/3
f 259/257/1 264/263/1 260/264/1
f 258/258/2 262/262/2 257/259/2
f 260/264/5 263/260/5 258/258/5
f 257/259/6 261/261/6 259/257/6
f 259/257/4 260/264/4 258/258/4
f 257/259/6 262/262/6 261/261/6
f 263/260/3 264/263/3 261/261/3
f 259/257/1 261/261/1 264/263/1
f 267/265/1 266/266/1 265/267/1
f 271/268/2 269/269/2 270/270/2
f 267/265/3 272/271/3 268/272/3
f 266/266/4 270/270/4 265/267/4
f 268/272/5 271/268/5 266/266/5
f 265/267/6 269/269/6 267/265/6
f 271/268/2 272/271/2 269/269/2
f 267/265/3 269/269/3 272/271/3
f 266/266/4 271/268/4 270/270/4
f 268/272/5 272/271/5 271/268/5
f 265/267/6 270/270/6 269/269/6
f 267/265/1 268/272/1 266/266/1
f 275/273/1 274/274/1 273/275/1
f 279/276/2 277/277/2 278/278/2
f 275/273/3 280/279/3 276/280/3
f 274/274/4 278/278/4 273/275/4
f 276/280/5 279/276/5 274/274/5
f 273/275/6 277/277/6 275/273/6
f 279/276/2 280/279/2 277/277/2
f 273/275/6 278/278/6 277/277/6
f 275/273/1 276/280/1 274/274/1
f 283/281/4 282/282/4 281/283/4
f 287/284/3 285/285/3 286/286/3
f 283/281/1 288/287/1 284/288/1
f 282/282/2 286/286/2 281/283/2
f 284/288/5 287/284/5 282/282/5
f 281/283/6 285/285/6 283/281/6
f 287/284/3 288/287/3 285/285/3
f 282/282/2 287/284/2 286/286/2
f 281/283/6 286/286/6 285/285/6
f 291/289/1 290/290/1 289/291/1
f 295/292/2 293/293/2 294/294/2
f 291/289/3 296/295/3 292/296/3
f 290/290/4 294/294/4 289/291/4
f 292/296/5 295/292/5 290/290/5
f 289/291/6 293/293/6 291/289/6
f 295/292/2 296/295/2 293/293/2
f 289/291/6 294/294/6 293/293/6
f 291/289/1 292/296/1 290/290/1
f 299/297/1 298/298/1 297/299/1
f 303/300/2 301/301/2 302/302/2
f 299/297/3 304/303/3 300/304/3
f 298/298/4 302/302/4 297/299/4
f 300/304/5 303/300/5 298/298/5
f 297/299/6 301/301/6 299/297/6
f 303/300/2 304/303/2 301/301/2
f 297/299/6 302/302/6 301/301/6
f 299/297/1 300/304/1 298/298/1
f 307/305/4 306/306/4 305/307/4
f 311/308/3 309/309/3 310/310/3
f 307/305/1 312/311/1 308/312/1
f 306/306/2 310/310/2 305/307/2
f 308/312/5 311/308/5 306/306/5
f 305/307/6 309/309/6 307/305/6
f 307/305/4 308/312/4 306/306/4
f 307/305/1 309/309/1 312/311/1
f 306/306/2 311/308/2 310/310/2
f 305/307/6 310/310/6 309/309/6
f 311/308/3 312/311/3 309/309/3
f 315/313/4 314/314/4 313/315/4
f 319/316/3 317/317/3 318/318/3
f 315/313/1 320/319/1 316/320/1
f 314/314/2 318/318/2 313/315/2
f 316/320/5 319/316/5 314/314/5
f 313/315/6 317/317/6 315/313/6
f 319/316/3 320/319/3 317/317/3
f 313/315/6 318/318/6 317/317/6
f 323/321/4 322/322/4 321/323/4
f 327/324/3 325/325/3 326/326/3
f 323/321/1 328/327/1 324/328/1
f 322/322/2 326/326/2 321/323/2
f 324/328/5 327/324/5 322/322/5
f 321/323/6 325/325/6 323/321/6
f 327/324/3 328/327/3 325/325/3
f 322/322/2 327/324/2 326/326/2
f 321/323/6 326/326/6 325/325/6
f 323/321/1 325/325/1 328/327/1
f 331/329/4 330/330/4 329/331/4
f 335/332/3 333/333/3 334/334/3
f 331/329/1 336/335/1 332/336/1
f 330/330/2 334/334/2 329/331/2
f 332/336/5 335/332/5 330/330/5
f 329/331/6 333/333/6 331/329/6
f 335/332/3 336/335/3 333/333/3
f 331/329/1 333/333/1 336/335/1
f 330/330/2 335/332/2 334/334/2
f 329/331/6 334/334/6 333/333/6
f 339/337/1 338/338/1 337/339/1
f 343/340/2 341/341/2 342/342/2
f 339/337/3 344/343/3 340/344/3
f 338/338/4 342/342/4 337/339/4
f 340/344/5 343/340/5 338/338/5
f 337/339/6 341/341/6 339/337/6
f 343/340/2 344/343/2 341/341/2
f 337/339/6 342/342/6 341/341/6
f 339/337/1 340/344/1 338/338/1
f 4/8/5 8/7/5 7/4/5
f 11/9/3 13/13/3 16/15/3
f 12/16/5 16/15/5 15/12/5
f 19/17/1 21/21/1 24/23/1
f 20/24/5 24/23/5 23/20/5
f 28/32/5 32/31/5 31/28/5
f 34/34/4 39/36/4 38/38/4
f 36/40/5 40/39/5 39/36/5
f 44/48/5 48/47/5 47/44/5
f 50/50/4 55/52/4 54/54/4
f 52/56/5 56/55/5 55/52/5
f 60/64/5 64/63/5 63/60/5
f 68/72/5 72/71/5 71/68/5
f 76/80/5 80/79/5 79/76/5
f 84/88/5 88/87/5 87/84/5
f 90/90/2 95/92/2 94/94/2
f 92/96/5 96/95/5 95/92/5
f 100/104/5 104/103/5 103/100/5
f 107/105/1 109/109/1 112/111/1
f 106/106/2 111/108/2 110/110/2
f 108/112/5 112/111/5 111/108/5
f 115/113/3 117/117/3 120/119/3
f 114/114/4 119/116/4 118/118/4
f 116/120/5 120/119/5 119/116/5
f 124/128/5 128/127/5 127/124/5
f 132/136/5 136/135/5 135/132/5
f 148/152/5 152/151/5 151/148/5
f 155/153/3 157/157/3 160/159/3
f 156/160/5 160/159/5 159/156/5
f 163/161/3 165/165/3 168/167/3
f 164/168/5 168/167/5 167/164/5
f 172/176/5 176/175/5 175/172/5
f 180/184/5 184/183/5 183/180/5
f 187/185/1 189/189/1 192/191/1
f 188/192/5 192/191/5 191/188/5
f 195/193/1 197/197/1 200/199/1
f 194/194/2 199/196/2 198/198/2
f 196/200/5 200/199/5 199/196/5
f 204/208/5 208/207/5 207/204/5
f 211/209/1 213/213/1 216/215/1
f 212/216/5 216/215/5 215/212/5
f 220/224/5 224/223/5 223/220/5
f 227/225/4 228/232/4 226/226/4
f 226/226/2 231/228/2 230/230/2
f 228/232/5 232/231/5 231/228/5
f 236/240/5 240/239/5 239/236/5
f 242/242/4 247/244/4 246/246/4
f 244/248/5 248/247/5 247/244/5
f 250/250/2 255/252/2 254/254/2
f 252/256/5 256/255/5 255/252/5
f 258/258/2 263/260/2 262/262/2
f 260/264/5 264/263/5 263/260/5
f 275/273/3 277/277/3 280/279/3
f 274/274/4 279/276/4 278/278/4
f 276/280/5 280/279/5 279/276/5
f 283/281/4 284/288/4 282/282/4
f 283/281/1 285/285/1 288/287/1
f 284/288/5 288/287/5 287/284/5
f 291/289/3 293/293/3 296/295/3
f 290/290/4 295/292/4 294/294/4
f 292/296/5 296/295/5 295/292/5
f 299/297/3 301/301/3 304/303/3
f 298/298/4 303/300/4 302/302/4
f 300/304/5 304/303/5 303/300/5
f 308/312/5 312/311/5 311/308/5
f 315/313/4 316/320/4 314/314/4
f 315/313/1 317/317/1 320/319/1
f 314/314/2 319/316/2 318/318/2
f 316/320/5 320/319/5 319/316/5
f 323/321/4 324/328/4 322/322/4
f 324/328/5 328/327/5 327/324/5
f 331/329/4 332/336/4 330/330/4
f 332/336/5 336/335/5 335/332/5
f 339/337/3 341/341/3 344/343/3
f 338/338/4 343/340/4 342/342/4
f 340/344/5 344/343/5 343/340/5
